spawns	name	room	loc_x	loc_y	loc_z	yaw	script	mood	animation_mood	respawn_time	spawn_objvar	special_room	special_room_script	room_objvar	room_objvar_name	room_objvar_value	planet_level
s	s	s	f	f	f	f	s	s	s	i	s	s	s	s	s	s	i[0]
bull_rancor		world	7196.772461	490.4089355	3227.190186	65	theme_park.dungeon.generic_death			3600	int:ai.defaultCalmBehavior=1						1
bull_rancor		world	7193.4	491.3	3233.9	65	theme_park.dungeon.generic_death			3600	int:ai.defaultCalmBehavior=1						1
